{
  "ignore": [
    ".md$",
    "^bin/",
    "^.go/"
  ],
  "projects": {
    "docker": {
      "path": "docker",
      "pipeline": ".buildkite/docker-base-images.yaml"
    },
    "helm": {
      "path": "helm",
      "pipeline": ".buildkite/helm.yaml",
      "dependencies": [
        ".buildkite"
      ]
    },
    "sealedsecrets": {
      "path": "sealed-secrets",
      "pipeline": ".buildkite/sealed-secrets.yaml",
      "dependencies": [
        ".buildkite"
      ]
    },
    "proxy": {
      "path": "proxy",
      "pipeline": ".buildkite/proxy.yaml",
      "dependencies": [
        ".buildkite",
        "helm"
      ]
    },
    "api": {
      "path": "api",
      "pipeline": ".buildkite/api.yaml",
      "dependencies": [
        ".buildkite",
        "docker"
      ]
    }
  }
}
